Success from NCAA to NFL
…
To provide a first look at how each conference compares to one another, we can look at the number of schools in each conference that produce NFL stars. This indicates a conference’s strength and depth in competitiveness, as a strong conference would have many different schools producing high-level talent.

# Count number of schools represented in the top 255 players for each conference
college_totals %>%
  group_by(Conference) %>% # Create subsets by conference
  summarize(n=n()) %>% # Count number of schools represented in each conference
  mutate(prop_n=n/sum(n),
         prop_n=round(prop_n,3)) %>% # # Create new varaiable to display proportion of schools
  arrange(desc(n)) # Arrange in descending order

## # A tibble: 28 × 3
##    Conference            n prop_n
##    <chr>             <int>  <dbl>
##  1 ACC                  13  0.121
##  2 Big Ten              12  0.112
##  3 SEC                  12  0.112
##  4 Pac-12               10  0.093
##  5 Big 12                9  0.084
##  6 SWAC                  9  0.084
##  7 Mountain West         5  0.047
##  8 American Athletic     4  0.037
##  9 Mid-American          4  0.037
## 10 Conference USA        3  0.028
## # … with 18 more rows

Schools in the ACC are represented the most within the top 255 players. There also appears to be a slight gap in this category, with the top six conferences (ACC, Big Ten, SEC, Pac-12, Big 12, SWAC) having more schools that produce top-level NFL players.

Another metric to determine success is the number of selections for the Pro Bowl, with well-performing players generally selected for the Pro Bowl after every season.

college_totals %>%
  group_by(Conference) %>%
  summarize(`Pro Bowl Selections` = sum(`Pro Bowl Selections`)) %>%
  arrange(desc(`Pro Bowl Selections`))

## # A tibble: 28 × 2
##    Conference        `Pro Bowl Selections`
##    <chr>                             <dbl>
##  1 Big Ten                            1142
##  2 SEC                                1056
##  3 ACC                                 963
##  4 Pac-12                              914
##  5 Big 12                              523
##  6 SWAC                                280
##  7 FBS Independents                    219
##  8 American Athletic                   133
##  9 Mountain West                       127
## 10 Conference USA                       75
## # … with 18 more rows

This time, there is a significant gap between the four conferences at the top (Big Ten, SEC, ACC, Pac-12) and the rest of the NCAA. We can also see that the top conference in pro bowl selections (Big Ten) differs from the top conference in school representation (ACC).

# Find total number of Hall of Famers from each conference
college_totals %>%
  group_by(Conference) %>% # Create subsets by conference
  summarize(`Hall of Famers` = sum(`Hall of Famers`)) %>% # Find totals for each conference based on variable
  arrange(desc(`Hall of Famers`)) # Arrange by variable in descending order 

## # A tibble: 28 × 2
##    Conference        `Hall of Famers`
##    <chr>                        <dbl>
##  1 Big Ten                         58
##  2 ACC                             47
##  3 Pac-12                          45
##  4 SEC                             36
##  5 Big 12                          18
##  6 SWAC                            18
##  7 FBS Independents                15
##  8 American Athletic               11
##  9 Conference USA                   5
## 10 MEAC                             5
## # … with 18 more rows

#Find total wAV value for each conference
college_totals %>%
  group_by(Conference) %>% # Create subsets by conference
  summarize(`Total wAV` = sum(`Total wAV`)) %>% # Calculate sum of total wAV for each conference
  arrange(desc(`Total wAV`)) # Arrange by variable in descending order

## # A tibble: 28 × 2
##    Conference        `Total wAV`
##    <chr>                   <dbl>
##  1 ACC                      5444
##  2 Big Ten                  4125
##  3 SEC                      4120
##  4 Pac-12                   3973
##  5 SWAC                     1800
##  6 Big 12                   1490
##  7 Mountain West             883
##  8 Mid-American              743
##  9 FBS Independents          710
## 10 American Athletic         496
## # … with 18 more rows
…
